{
  "project_info": {
    "project_id": "shnapit-5ef5b",
    "project_number": "872543123846",
    "name": "shnapit"
  },
  "client": [
    {
      "client_info": {
        "mobilesdk_app_id": "1:872543123846:android:5c03c10a33ec25ea",
        "client_id": "android:net.reea.shnapit",
        "client_type": 1,
        "android_client_info": {
          "package_name": "net.reea.shnapit"
        }
      },
      "oauth_client": [],
      "api_key": [],
      "services": {
        "analytics_service": {
          "status": 1
        },
        "cloud_messaging_service": {
          "status": 2,
          "apns_config": []
        },
        "appinvite_service": {
          "status": 1,
          "other_platform_oauth_client": []
        },
        "google_signin_service": {
          "status": 1
        },
        "ads_service": {
          "status": 1
        }
      }
    },
    {
      "client_info": {
        "mobilesdk_app_id": "1:872543123846:android:dcb2dd848218d6d2",
        "client_id": "android:shnapit.shnapit",
        "client_type": 1,
        "android_client_info": {
          "package_name": "shnapit.shnapit"
        }
      },
      "oauth_client": [],
      "api_key": [],
      "services": {
        "analytics_service": {
          "status": 1
        },
        "cloud_messaging_service": {
          "status": 2,
          "apns_config": []
        },
        "appinvite_service": {
          "status": 1,
          "other_platform_oauth_client": []
        },
        "google_signin_service": {
          "status": 1
        },
        "ads_service": {
          "status": 1
        }
      }
    }
  ],
  "client_info": [],
  "ARTIFACT_VERSION": "1"
}